[
  {
    "type": "title",
    "title": "Speech to text application"
  },
  { "type": "options",
    "title": "Transcription output path",
    "desc": "Directory in which in the transcription is saved to",
    "key": "transcription_output_path"
  }
]